01.jpg,https://gitcode.net/qq_32394351/dr/-/raw/master/img/yuedu/01.jpg
02.jpg,https://gitcode.net/qq_32394351/dr/-/raw/master/img/yuedu/02.jpg
03.jpg,https://gitcode.net/qq_32394351/dr/-/raw/master/img/yuedu/03.jpg
04.jpg,https://gitcode.net/qq_32394351/dr/-/raw/master/img/yuedu/04.jpg
05.jpg,https://gitcode.net/qq_32394351/dr/-/raw/master/img/yuedu/05.jpg
06.jpg,https://gitcode.net/qq_32394351/dr/-/raw/master/img/yuedu/06.jpg
07.jpg,https://gitcode.net/qq_32394351/dr/-/raw/master/img/yuedu/07.jpg
08.jpg,https://gitcode.net/qq_32394351/dr/-/raw/master/img/yuedu/08.jpg
09.jpg,https://gitcode.net/qq_32394351/dr/-/raw/master/img/yuedu/09.jpg
10.jpg,https://gitcode.net/qq_32394351/dr/-/raw/master/img/yuedu/10.jpg
11.jpg,https://gitcode.net/qq_32394351/dr/-/raw/master/img/yuedu/11.jpg
12.jpg,https://gitcode.net/qq_32394351/dr/-/raw/master/img/yuedu/12.jpg
13.jpg,https://gitcode.net/qq_32394351/dr/-/raw/master/img/yuedu/13.jpg
14.jpg,https://gitcode.net/qq_32394351/dr/-/raw/master/img/yuedu/14.jpg
15.jpg,https://gitcode.net/qq_32394351/dr/-/raw/master/img/yuedu/15.jpg
16.jpg,https://gitcode.net/qq_32394351/dr/-/raw/master/img/yuedu/16.jpg
17.jpg,https://gitcode.net/qq_32394351/dr/-/raw/master/img/yuedu/17.jpg
18.jpg,https://gitcode.net/qq_32394351/dr/-/raw/master/img/yuedu/18.jpg
19.jpg,https://gitcode.net/qq_32394351/dr/-/raw/master/img/yuedu/19.jpg
20.jpg,https://gitcode.net/qq_32394351/dr/-/raw/master/img/yuedu/20.jpg
21.jpg,https://gitcode.net/qq_32394351/dr/-/raw/master/img/yuedu/21.jpg